{
	"udo": {
            "setCh": {
                "body": "ich, asig xin\niidx init ich - 1\nif(iidx<0) then\n\tiidx = 0\nendif\ngaOut[iidx] = gaOut[iidx] + asig\n",
                "input": "ia",
                "output": "0",
                "udo_required": null
            },
            "imtofa": {
                "body": "imid xin\naout = 440 * exp(0.0577622645 * (imid - 69))\nxout aout",
                "input": "i",
                "output": "a",
                "udo_required": null
            },
            "mtofa": {
                "body": "setksmps 1\namid xin\naout = 440 * exp(0.0577622645 * (amid - 69))\nxout aout",
                "input": "a",
                "output": "a",
                "udo_required": null
            },
            "phase_gen": {
                "body": "idur xin\naidx = linseg(0,abs(idur),1)\nxout aidx",
                "input": "i",
                "output": "a",
                "udo_required": null
            },
        "imtofk": {
            "body": "imid xin\nkout = 440 * exp(0.0577622645 * (imid - 69))\nxout kout",
            "input": "i",
            "output": "k",
            "udo_required": null
        },
        "mtofk": {
            "body": "setksmps 1\nkmid xin\nkout = 440 * exp(0.0577622645 * (kmid - 69))\nxout kout",
            "input": "k",
            "output": "k",
            "udo_required": null
        },
        "readtabk": {
            "body": "setksmps 1\nifn,idur,imode xin\nkout init 0\n\niabs=abs(ifn)\nkidx linseg 0,abs(idur),1\n\nif(imode==0) then ;pan\n\tif(ifn>=0) then\n\t\tkout = ifn\n\telseif(ifn<0) then\n\t\tkout = tablei(kidx,iabs,1)\n\tendif\nelseif(imode==1) then ;env\n\tkout = tablei(kidx,iabs,1)\nelseif(imode==2) then ;cps\n\tif(ifn>0) then\n\t\tkout=imtofk(iabs)\n\telseif(ifn<0) then\n\t\tktemp=tablei(kidx,iabs,1)\n\t\tkout=mtofk(ktemp)\n\tendif\nelseif(imode==3) then\n\tif(ifn>0) then\n\t\tkout=abs(ifn)\n\telseif(ifn<0) then\n\t\tkout=tablei(kidx,iabs,1)\n\tendif\nendif\nxout kout",
            "input": "iii",
            "output": "k",
            "udo_required": {
                "0": "mtofk",
                "1": "imtofk"
            }
        },
        "readtabk_sec": {
            "body": "setksmps 1\nifn,imode,kidx xin\nkout init 0\n\niabs=abs(ifn)\n\nif(imode==0) then ;pan\n\tif(ifn>=0) then\n\t\tkout = ifn\n\telseif(ifn<0) then\n\t\tkout = tablei(kidx,iabs,1)\n\tendif\nelseif(imode==1) then ;env\n\tkout = tablei(kidx,iabs,1)\nelseif(imode==2) then ;cps\n\tif(ifn>0) then\n\t\tkout=imtofk(iabs)\n\telseif(ifn<0) then\n\t\tktemp=tablei(kidx,iabs,1)\n\t\tkout=mtofk(ktemp)\n\tendif\nelseif(imode==3) then\n\tif(ifn>=0) then\n\t\tkout=ifn\n\telseif(ifn<0) then\n\t\tkout=tablei(kidx,iabs,1)\n\tendif\nendif\nxout kout",
            "input": "iik",
            "output": "k",
            "udo_required": {
                "0": "mtofk",
                "1": "imtofk"
            }
        },
            "readtaba": {
                "body": "setksmps 1\nifn,idur,imode xin\naout init 0\n\niabs=abs(ifn)\naidx linseg 0,abs(idur),1\n\nif(imode==0) then ;pan\n\tif(ifn>=0) then\n\t\taout = ifn\n\telseif(ifn<0) then\n\t\taout = tablei(aidx,iabs,1)\n\tendif\nelseif(imode==1) then ;env\n\taout = tablei(aidx,iabs,1)\nelseif(imode==2) then ;cps\n\tif(ifn>0) then\n\t\taout=imtofa(iabs)\n\telseif(ifn<0) then\n\t\tatemp=tablei(aidx,iabs,1)\n\t\taout=mtofa(atemp)\n\tendif\nelseif(imode==3) then\n\tif(ifn>0) then\n\t\taout=abs(ifn)\n\telseif(ifn<0) then\n\t\taout=tablei(aidx,iabs,1)\n\tendif\nendif\nxout aout",
                "input": "iii",
                "output": "a",
                "udo_required": {
                    "0": "mtofa",
                    "1": "imtofa"
                }
            },
            "readtaba_sec": {
                "body": "setksmps 1\nifn,imode,aidx xin\naout init 0\n\niabs=abs(ifn)\n\nif(imode==0) then ;pan\n\tif(ifn>=0) then\n\t\taout = ifn\n\telseif(ifn<0) then\n\t\taout = tablei(aidx,iabs,1)\n\tendif\nelseif(imode==1) then ;env\n\taout = tablei(aidx,iabs,1)\nelseif(imode==2) then ;cps\n\tif(ifn>0) then\n\t\taout=imtofa(iabs)\n\telseif(ifn<0) then\n\t\tatemp=tablei(aidx,iabs,1)\n\t\taout=mtofa(atemp)\n\tendif\nelseif(imode==3) then\n\tif(ifn>=0) then\n\t\taout=ifn\n\telseif(ifn<0) then\n\t\taout=tablei(aidx,iabs,1)\n\tendif\nendif\nxout aout",
                "input": "iia",
                "output": "a",
                "udo_required": {
                    "0": "mtofa",
                    "1": "imtofa"
                }
            },
	    "table_atq": {
            "body": "itable_num, idur, iatq_pos, iatq_dur xin\nirest = idur - iatq_dur\nkidx = linseg(0, iatq_dur, iatq_pos, irest, 1)\nkres = tablei(kidx, itable_num, 1)\nxout kres\n",
            "input": "iiii",
            "output": "k",
            "udo_required": null
        },
	"table_adsr": {
		    "body": "itable_num, idur, iatq_pos, iatq_dur, idec, isustain_pos, isustain_dur xin\nirest = idur - iatq_dur - idec - isustain_dur\nkidx = linseg(0, iatq_dur, iatq_pos, idec, isustain_pos, isustain_dur, isustain_pos, irest, 1)\nkres = tablei(kidx, itable_num, 1)\nxout kres\n",
		    "input": "iiiiiii",
		    "output": "k",
		    "udo_required": null
	}


	}
}
